2024 EDMW Workshop 3B - R - Read in data
…
Rows: 5356 Columns: 15
── Column specification ────────────────────────────────────────────────────────
Delimiter: ","
chr (7): scientific, common, provider, obs_date, date_time, ds_type, platform
dbl (8): oid, id, dataset_id, tsn, latitude, longitude, lprecision, count

ℹ Use `spec()` to retrieve the full column specification for this data.
ℹ Specify the column types or set `show_col_types = FALSE` to quiet this message.

Show the data

obis_seamap_green

# A tibble: 5,356 × 15
       oid    id dataset_id    tsn scientific common provider latitude longitude
     <dbl> <dbl>      <dbl>  <dbl> <chr>      <chr>  <chr>       <dbl>     <dbl>
 1  2.18e8   219       2069 173833 Chelonia … Green… Nicolas…     24.6      53.0
 2  2.18e8     1       2069 173833 Chelonia … Green… Nicolas…     24.6      53.0
 3  2.18e8   136       2069 173833 Chelonia … Green… Nicolas…     24.6      53.1
 4  2.18e8   258       2069 173833 Chelonia … Green… Nicolas…     24.6      53.0
 5  2.18e8   292       2069 173833 Chelonia … Green… Nicolas…     24.6      53.0
 6  2.18e8   259       2069 173833 Chelonia … Green… Nicolas…     24.6      53.0
 7  2.18e8   293       2069 173833 Chelonia … Green… Nicolas…     24.6      53.0
 8  2.18e8     2       2069 173833 Chelonia … Green… Nicolas…     24.6      53.1
 9  2.18e8   183       2069 173833 Chelonia … Green… Nicolas…     24.6      53.1
10  2.18e8   184       2069 173833 Chelonia … Green… Nicolas…     24.6      53.1
# ℹ 5,346 more rows
# ℹ 6 more variables: lprecision <dbl>, obs_date <chr>, date_time <chr>,
#   count <dbl>, ds_type <chr>, platform <chr>
…
